Lec 09 - Functional programming & purrr
…
---

```r
map_dfr(sw_people, function(x) x[1:5])
```

```
## # A tibble: 87 × 5
##    name               height mass  hair_color    skin_color 
##    <chr>              <chr>  <chr> <chr>         <chr>      
##  1 Luke Skywalker     172    77    blond         fair       
##  2 C-3PO              167    75    n/a           gold       
##  3 R2-D2              96     32    n/a           white, blue
##  4 Darth Vader        202    136   none          white      
##  5 Leia Organa        150    49    brown         light      
##  6 Owen Lars          178    120   brown, grey   light      
##  7 Beru Whitesun lars 165    75    brown         light      
##  8 R5-D4              97     32    n/a           white, red 
##  9 Biggs Darklighter  183    84    black         light      
## 10 Obi-Wan Kenobi     182    77    auburn, white fair       
## # … with 77 more rows
```
…
---

## list columns

.pull-left[

```r
(chars = tibble(
  name = purrr::map_chr(sw_people, "name"),
  starships = purrr::map(sw_people, "starships")
))
```

```
## # A tibble: 87 × 2
##    name               starships
##    <chr>              <list>   
##  1 Luke Skywalker     <chr [2]>
##  2 C-3PO              <NULL>   
##  3 R2-D2              <NULL>   
##  4 Darth Vader        <chr [1]>
##  5 Leia Organa        <NULL>   
##  6 Owen Lars          <NULL>   
##  7 Beru Whitesun lars <NULL>   
##  8 R5-D4              <NULL>   
##  9 Biggs Darklighter  <chr [1]>
## 10 Obi-Wan Kenobi     <chr [5]>
## # … with 77 more rows
```
]

.pull-right[

```r
chars %>%
  mutate(
    n_starships = map_int(starships, length)
  )
```

```
## # A tibble: 87 × 3
##    name               starships n_starships
##    <chr>              <list>          <int>
##  1 Luke Skywalker     <chr [2]>           2
##  2 C-3PO              <NULL>              0
##  3 R2-D2              <NULL>              0
##  4 Darth Vader        <chr [1]>           1
##  5 Leia Organa        <NULL>              0
##  6 Owen Lars          <NULL>              0
##  7 Beru Whitesun lars <NULL>              0
##  8 R5-D4              <NULL>              0
##  9 Biggs Darklighter  <chr [1]>           1
## 10 Obi-Wan Kenobi     <chr [5]>           5
## # … with 77 more rows
```
…
---

## tidyr's hoist

```r
tibble(disc = repurrrsive::discog) %>% 
  hoist(
    disc, 
    info = "basic_information"
  )
```

```
## # A tibble: 155 × 2
##    info              disc            
##    <list>            <list>          
##  1 <named list [11]> <named list [4]>
##  2 <named list [11]> <named list [4]>
##  3 <named list [11]> <named list [4]>
##  4 <named list [11]> <named list [4]>
##  5 <named list [11]> <named list [4]>
##  6 <named list [11]> <named list [4]>
##  7 <named list [11]> <named list [4]>
##  8 <named list [11]> <named list [4]>
##  9 <named list [11]> <named list [4]>
## 10 <named list [11]> <named list [4]>
## # … with 145 more rows
```
…
```r
tibble(disc = repurrrsive::discog) %>% 
  hoist(
    disc, 
    id = "id",
    year = c("basic_information", "year"), 
    title = c("basic_information", "title"),
    artist = list("basic_information", "artists", 1, "name"),
    label = list("basic_information", "labels", 1, "name")
  )
```

```
## # A tibble: 155 × 6
##          id  year title                             artist    label disc        
##       <int> <int> <chr>                             <chr>     <chr> <list>      
##  1  7496378  2015 Demo                              Mollot    Tobi… <named list>
##  2  4490852  2013 Observant Com El Mon Es Destrueix Una Bèst… La V… <named list>
##  3  9827276  2017 I                                 S.H.I.T.… La V… <named list>
##  4  9769203  2017 Oído Absoluto                     Rata Neg… La V… <named list>
##  5  7237138  2015 A Cat's Cause, No Dogs Problem    Ivy (18)  Kato… <named list>
##  6 13117042  2019 Tashme                            Tashme    High… <named list>
##  7  7113575  2014 Demo                              Desgraci… Mind… <named list>
##  8 10540713  2015 Let The Miracles Begin            Phantom … Not … <named list>
##  9 11260950  2017 Sub Space                         Sub Spac… Not … <named list>
## 10 11726853  2017 Demo                              Small Ma… Pres… <named list>
## # … with 145 more rows
```
