Lec 07 - Tidy data & dplyr
…
---

## Tidy vs Untidy

> Happy families are all alike; every unhappy family is unhappy in its own way 
>
> — Leo Tolstoy, Anna Karenina

--

<br/>

```
## # A tibble: 317 × 7
##    artist         track                   date.entered   wk1   wk2   wk3   wk4
##    <chr>          <chr>                   <date>       <dbl> <dbl> <dbl> <dbl>
##  1 2 Pac          Baby Don't Cry (Keep... 2000-02-26      87    82    72    77
##  2 2Ge+her        The Hardest Part Of ... 2000-09-02      91    87    92    NA
##  3 3 Doors Down   Kryptonite              2000-04-08      81    70    68    67
##  4 3 Doors Down   Loser                   2000-10-21      76    76    72    69
##  5 504 Boyz       Wobble Wobble           2000-04-15      57    34    25    17
##  6 98^0           Give Me Just One Nig... 2000-08-19      51    39    34    26
##  7 A*Teens        Dancing Queen           2000-07-08      97    97    96    95
##  8 Aaliyah        I Don't Wanna           2000-01-29      84    62    51    41
##  9 Aaliyah        Try Again               2000-03-18      59    53    38    28
## 10 Adams, Yolanda Open My Heart           2000-08-26      76    76    74    69
## # … with 307 more rows
```
…
.pull-right[

```r
(tbl_iris = as_tibble(iris))
```

```
## # A tibble: 150 × 5
##    Sepal.Length Sepal.Width Petal.Length
##           <dbl>       <dbl>        <dbl>
##  1          5.1         3.5          1.4
##  2          4.9         3            1.4
##  3          4.7         3.2          1.3
##  4          4.6         3.1          1.5
##  5          5           3.6          1.4
##  6          5.4         3.9          1.7
##  7          4.6         3.4          1.4
##  8          5           3.4          1.5
##  9          4.4         2.9          1.4
## 10          4.9         3.1          1.5
## # … with 140 more rows, and 2 more variables:
## #   Petal.Width <dbl>, Species <fct>
```
…
--

.pull-left[

```r
tbl_iris[,1]
```

```
## # A tibble: 150 × 1
##    Sepal.Length
##           <dbl>
##  1          5.1
##  2          4.9
##  3          4.7
##  4          4.6
##  5          5  
##  6          5.4
##  7          4.6
##  8          5  
##  9          4.4
## 10          4.9
## # … with 140 more rows
```
…
---

## Example Data

We will demonstrate dplyr's functionality using the nycflights13 data.

```r
library(dplyr)
library(nycflights13)

flights
```

```
## # A tibble: 336,776 × 19
##     year month   day dep_time sched_dep_time dep_delay arr_time sched_arr_time
##    <int> <int> <int>    <int>          <int>     <dbl>    <int>          <int>
##  1  2013     1     1      517            515         2      830            819
##  2  2013     1     1      533            529         4      850            830
##  3  2013     1     1      542            540         2      923            850
##  4  2013     1     1      544            545        -1     1004           1022
##  5  2013     1     1      554            600        -6      812            837
##  6  2013     1     1      554            558        -4      740            728
##  7  2013     1     1      555            600        -5      913            854
##  8  2013     1     1      557            600        -3      709            723
##  9  2013     1     1      557            600        -3      838            846
## 10  2013     1     1      558            600        -2      753            745
## # … with 336,766 more rows, and 11 more variables: arr_delay <dbl>,
## #   carrier <chr>, flight <int>, tailnum <chr>, origin <chr>, dest <chr>,
## #   air_time <dbl>, distance <dbl>, hour <dbl>, minute <dbl>, time_hour <dttm>
```

---

## filter() - March flights

```r
flights %>% filter(month == 3)
```

```
## # A tibble: 28,834 × 19
##     year month   day dep_time sched_dep_time dep_delay arr_time sched_arr_time
##    <int> <int> <int>    <int>          <int>     <dbl>    <int>          <int>
##  1  2013     3     1        4           2159       125      318             56
##  2  2013     3     1       50           2358        52      526            438
##  3  2013     3     1      117           2245       152      223           2354
##  4  2013     3     1      454            500        -6      633            648
##  5  2013     3     1      505            515       -10      746            810
##  6  2013     3     1      521            530        -9      813            827
##  7  2013     3     1      537            540        -3      856            850
##  8  2013     3     1      541            545        -4     1014           1023
##  9  2013     3     1      549            600       -11      639            703
## 10  2013     3     1      550            600       -10      747            801
## # … with 28,824 more rows, and 11 more variables: arr_delay <dbl>,
## #   carrier <chr>, flight <int>, tailnum <chr>, origin <chr>, dest <chr>,
## #   air_time <dbl>, distance <dbl>, hour <dbl>, minute <dbl>, time_hour <dttm>
```

---

## filter() - Flights in the first 7 days of March

```r
flights %>% filter(month == 3, day <= 7)
```

```
## # A tibble: 6,530 × 19
##     year month   day dep_time sched_dep_time dep_delay arr_time sched_arr_time
##    <int> <int> <int>    <int>          <int>     <dbl>    <int>          <int>
##  1  2013     3     1        4           2159       125      318             56
##  2  2013     3     1       50           2358        52      526            438
##  3  2013     3     1      117           2245       152      223           2354
##  4  2013     3     1      454            500        -6      633            648
##  5  2013     3     1      505            515       -10      746            810
##  6  2013     3     1      521            530        -9      813            827
##  7  2013     3     1      537            540        -3      856            850
##  8  2013     3     1      541            545        -4     1014           1023
##  9  2013     3     1      549            600       -11      639            703
## 10  2013     3     1      550            600       -10      747            801
## # … with 6,520 more rows, and 11 more variables: arr_delay <dbl>,
## #   carrier <chr>, flight <int>, tailnum <chr>, origin <chr>, dest <chr>,
## #   air_time <dbl>, distance <dbl>, hour <dbl>, minute <dbl>, time_hour <dttm>
```

---

## filter() - Flights to LAX *or* JFK in March

```r
flights %>% filter(dest == "LAX" | dest == "JFK", month==3)
```

```
## # A tibble: 1,178 × 19
##     year month   day dep_time sched_dep_time dep_delay arr_time sched_arr_time
##    <int> <int> <int>    <int>          <int>     <dbl>    <int>          <int>
##  1  2013     3     1      607            610        -3      832            925
##  2  2013     3     1      629            632        -3      844            952
##  3  2013     3     1      657            700        -3      953           1034
##  4  2013     3     1      714            715        -1      939           1037
##  5  2013     3     1      716            710         6      958           1035
##  6  2013     3     1      727            730        -3     1007           1100
##  7  2013     3     1      836            840        -4     1111           1157
##  8  2013     3     1      857            900        -3     1202           1221
##  9  2013     3     1      903            900         3     1157           1220
## 10  2013     3     1      904            831        33     1150           1151
## # … with 1,168 more rows, and 11 more variables: arr_delay <dbl>,
## #   carrier <chr>, flight <int>, tailnum <chr>, origin <chr>, dest <chr>,
## #   air_time <dbl>, distance <dbl>, hour <dbl>, minute <dbl>, time_hour <dttm>
```
…
---

## select() - Individual Columns

```r
flights %>% select(year, month, day)
```

```
## # A tibble: 336,776 × 3
##     year month   day
##    <int> <int> <int>
##  1  2013     1     1
##  2  2013     1     1
##  3  2013     1     1
##  4  2013     1     1
##  5  2013     1     1
##  6  2013     1     1
##  7  2013     1     1
##  8  2013     1     1
##  9  2013     1     1
## 10  2013     1     1
## # … with 336,766 more rows
```

---

## select() - Exclude Columns

```r
flights %>% select(-year, -month, -day)
```

```
## # A tibble: 336,776 × 16
##    dep_time sched_dep_time dep_delay arr_time sched_arr_time arr_delay carrier
##       <int>          <int>     <dbl>    <int>          <int>     <dbl> <chr>  
##  1      517            515         2      830            819        11 UA     
##  2      533            529         4      850            830        20 UA     
##  3      542            540         2      923            850        33 AA     
##  4      544            545        -1     1004           1022       -18 B6     
##  5      554            600        -6      812            837       -25 DL     
##  6      554            558        -4      740            728        12 UA     
##  7      555            600        -5      913            854        19 B6     
##  8      557            600        -3      709            723       -14 EV     
##  9      557            600        -3      838            846        -8 B6     
## 10      558            600        -2      753            745         8 AA     
## # … with 336,766 more rows, and 9 more variables: flight <int>, tailnum <chr>,
## #   origin <chr>, dest <chr>, air_time <dbl>, distance <dbl>, hour <dbl>,
## #   minute <dbl>, time_hour <dttm>
```

---

## select() - Ranges

```r
flights %>% select(year:day)
```

```
## # A tibble: 336,776 × 3
##     year month   day
##    <int> <int> <int>
##  1  2013     1     1
##  2  2013     1     1
##  3  2013     1     1
##  4  2013     1     1
##  5  2013     1     1
##  6  2013     1     1
##  7  2013     1     1
##  8  2013     1     1
##  9  2013     1     1
## 10  2013     1     1
## # … with 336,766 more rows
```

---

## select() - Exclusion Ranges

```r
flights %>% select(-(year:day))
```

```
## # A tibble: 336,776 × 16
##    dep_time sched_dep_time dep_delay arr_time sched_arr_time arr_delay carrier
##       <int>          <int>     <dbl>    <int>          <int>     <dbl> <chr>  
##  1      517            515         2      830            819        11 UA     
##  2      533            529         4      850            830        20 UA     
##  3      542            540         2      923            850        33 AA     
##  4      544            545        -1     1004           1022       -18 B6     
##  5      554            600        -6      812            837       -25 DL     
##  6      554            558        -4      740            728        12 UA     
##  7      555            600        -5      913            854        19 B6     
##  8      557            600        -3      709            723       -14 EV     
##  9      557            600        -3      838            846        -8 B6     
## 10      558            600        -2      753            745         8 AA     
## # … with 336,766 more rows, and 9 more variables: flight <int>, tailnum <chr>,
## #   origin <chr>, dest <chr>, air_time <dbl>, distance <dbl>, hour <dbl>,
## #   minute <dbl>, time_hour <dttm>
```

---

## select() - Matching

```r
flights %>% select(contains("dep"), 
                   contains("arr"))
```

```
## # A tibble: 336,776 × 7
##    dep_time sched_dep_time dep_delay arr_time sched_arr_time arr_delay carrier
##       <int>          <int>     <dbl>    <int>          <int>     <dbl> <chr>  
##  1      517            515         2      830            819        11 UA     
##  2      533            529         4      850            830        20 UA     
##  3      542            540         2      923            850        33 AA     
##  4      544            545        -1     1004           1022       -18 B6     
##  5      554            600        -6      812            837       -25 DL     
##  6      554            558        -4      740            728        12 UA     
##  7      555            600        -5      913            854        19 B6     
##  8      557            600        -3      709            723       -14 EV     
##  9      557            600        -3      838            846        -8 B6     
## 10      558            600        -2      753            745         8 AA     
## # … with 336,766 more rows
```

---

```r
flights %>% select(starts_with("dep"), 
                   starts_with("arr"))
```

```
## # A tibble: 336,776 × 4
##    dep_time dep_delay arr_time arr_delay
##       <int>     <dbl>    <int>     <dbl>
##  1      517         2      830        11
##  2      533         4      850        20
##  3      542         2      923        33
##  4      544        -1     1004       -18
##  5      554        -6      812       -25
##  6      554        -4      740        12
##  7      555        -5      913        19
##  8      557        -3      709       -14
##  9      557        -3      838        -8
## 10      558        -2      753         8
## # … with 336,766 more rows
```
.footnote[
Other helpers provide by [tidyselect](https://tidyselect.r-lib.org/): 

`starts_with`, `ends_with`, `everything`, `matches`, `num_range`, `one_of`, `everything`, `last_col`.
]
---

## select() + where() - Get numeric columns

```r
flights %>% select(where(is.numeric))
```

```
## # A tibble: 336,776 × 14
##     year month   day dep_time sched_dep_time dep_delay arr_time sched_arr_time
##    <int> <int> <int>    <int>          <int>     <dbl>    <int>          <int>
##  1  2013     1     1      517            515         2      830            819
##  2  2013     1     1      533            529         4      850            830
##  3  2013     1     1      542            540         2      923            850
##  4  2013     1     1      544            545        -1     1004           1022
##  5  2013     1     1      554            600        -6      812            837
##  6  2013     1     1      554            558        -4      740            728
##  7  2013     1     1      555            600        -5      913            854
##  8  2013     1     1      557            600        -3      709            723
##  9  2013     1     1      557            600        -3      838            846
## 10  2013     1     1      558            600        -2      753            745
## # … with 336,766 more rows, and 6 more variables: arr_delay <dbl>,
## #   flight <int>, air_time <dbl>, distance <dbl>, hour <dbl>, minute <dbl>
```

--

```r
flights %>% select(where(function(x) !is.numeric(x)))
```

```
## # A tibble: 336,776 × 5
##    carrier tailnum origin dest  time_hour          
##    <chr>   <chr>   <chr>  <chr> <dttm>             
##  1 UA      N14228  EWR    IAH   2013-01-01 05:00:00
##  2 UA      N24211  LGA    IAH   2013-01-01 05:00:00
##  3 AA      N619AA  JFK    MIA   2013-01-01 05:00:00
##  4 B6      N804JB  JFK    BQN   2013-01-01 05:00:00
##  5 DL      N668DN  LGA    ATL   2013-01-01 06:00:00
##  6 UA      N39463  EWR    ORD   2013-01-01 05:00:00
##  7 B6      N516JB  EWR    FLL   2013-01-01 06:00:00
##  8 EV      N829AS  LGA    IAD   2013-01-01 06:00:00
##  9 B6      N593JB  JFK    MCO   2013-01-01 06:00:00
## 10 AA      N3ALAA  LGA    ORD   2013-01-01 06:00:00
## # … with 336,766 more rows
```

---

## relocate - to the front

```r
flights %>% relocate(carrier, origin, dest)
```

```
## # A tibble: 336,776 × 19
##    carrier origin dest   year month   day dep_time sched_dep_time dep_delay
##    <chr>   <chr>  <chr> <int> <int> <int>    <int>          <int>     <dbl>
##  1 UA      EWR    IAH    2013     1     1      517            515         2
##  2 UA      LGA    IAH    2013     1     1      533            529         4
##  3 AA      JFK    MIA    2013     1     1      542            540         2
##  4 B6      JFK    BQN    2013     1     1      544            545        -1
##  5 DL      LGA    ATL    2013     1     1      554            600        -6
##  6 UA      EWR    ORD    2013     1     1      554            558        -4
##  7 B6      EWR    FLL    2013     1     1      555            600        -5
##  8 EV      LGA    IAD    2013     1     1      557            600        -3
##  9 B6      JFK    MCO    2013     1     1      557            600        -3
## 10 AA      LGA    ORD    2013     1     1      558            600        -2
## # … with 336,766 more rows, and 10 more variables: arr_time <int>,
## #   sched_arr_time <int>, arr_delay <dbl>, flight <int>, tailnum <chr>,
## #   air_time <dbl>, distance <dbl>, hour <dbl>, minute <dbl>, time_hour <dttm>
```

---

## relocate - to the end

```r
flights %>%
  relocate(year, month, day, .after = last_col())
```

```
## # A tibble: 336,776 × 19
##    dep_time sched_dep_time dep_delay arr_time sched_arr_time arr_delay carrier
##       <int>          <int>     <dbl>    <int>          <int>     <dbl> <chr>  
##  1      517            515         2      830            819        11 UA     
##  2      533            529         4      850            830        20 UA     
##  3      542            540         2      923            850        33 AA     
##  4      544            545        -1     1004           1022       -18 B6     
##  5      554            600        -6      812            837       -25 DL     
##  6      554            558        -4      740            728        12 UA     
##  7      555            600        -5      913            854        19 B6     
##  8      557            600        -3      709            723       -14 EV     
##  9      557            600        -3      838            846        -8 B6     
## 10      558            600        -2      753            745         8 AA     
## # … with 336,766 more rows, and 12 more variables: flight <int>, tailnum <chr>,
## #   origin <chr>, dest <chr>, air_time <dbl>, distance <dbl>, hour <dbl>,
## #   minute <dbl>, time_hour <dttm>, year <int>, month <int>, day <int>
```

---

## rename() - Change column names

```r
flights %>% rename(tail_number = tailnum)
```

```
## # A tibble: 336,776 × 19
##     year month   day dep_time sched_dep_time dep_delay arr_time sched_arr_time
##    <int> <int> <int>    <int>          <int>     <dbl>    <int>          <int>
##  1  2013     1     1      517            515         2      830            819
##  2  2013     1     1      533            529         4      850            830
##  3  2013     1     1      542            540         2      923            850
##  4  2013     1     1      544            545        -1     1004           1022
##  5  2013     1     1      554            600        -6      812            837
##  6  2013     1     1      554            558        -4      740            728
##  7  2013     1     1      555            600        -5      913            854
##  8  2013     1     1      557            600        -3      709            723
##  9  2013     1     1      557            600        -3      838            846
## 10  2013     1     1      558            600        -2      753            745
## # … with 336,766 more rows, and 11 more variables: arr_delay <dbl>,
## #   carrier <chr>, flight <int>, tail_number <chr>, origin <chr>, dest <chr>,
## #   air_time <dbl>, distance <dbl>, hour <dbl>, minute <dbl>, time_hour <dttm>
```
 
---

## select() vs. rename()

.xsmall[

```r
flights %>% select(tail_number = tailnum)
```

```
## # A tibble: 336,776 × 1
##    tail_number
##    <chr>      
##  1 N14228     
##  2 N24211     
##  3 N619AA     
##  4 N804JB     
##  5 N668DN     
##  6 N39463     
##  7 N516JB     
##  8 N829AS     
##  9 N593JB     
## 10 N3ALAA     
## # … with 336,766 more rows
```
…
