Lec 08 - tidyr
…
---

## pivot_longer (Wide -> Long)

```r
tidyr::pivot_longer(
  grades, 
  cols = hw_1:proj_2, 
  names_to = "assignment", 
  values_to = "score"
)
```

```
## # A tibble: 24 × 3
##    name  assignment score
##    <chr> <chr>      <dbl>
##  1 Alice hw_1          19
##  2 Alice hw_2          19
##  3 Alice hw_3          18
##  4 Alice hw_4          20
##  5 Alice proj_1        89
##  6 Alice proj_2        95
##  7 Bob   hw_1          18
##  8 Bob   hw_2          20
##  9 Bob   hw_3          18
## 10 Bob   hw_4          16
## # … with 14 more rows
```
…
---

```r
tidyr::pivot_longer(
  grades, 
  cols = hw_1:proj_2, 
  names_to = c("type", "id"), 
  names_sep = "_", 
  values_to = "score"
)
```

```
## # A tibble: 24 × 4
##    name  type  id    score
##    <chr> <chr> <chr> <dbl>
##  1 Alice hw    1        19
##  2 Alice hw    2        19
##  3 Alice hw    3        18
##  4 Alice hw    4        20
##  5 Alice proj  1        89
##  6 Alice proj  2        95
##  7 Bob   hw    1        18
##  8 Bob   hw    2        20
##  9 Bob   hw    3        18
## 10 Bob   hw    4        16
## # … with 14 more rows
```
…
---

## Lists as columns

.pull-left[

```r
(sw_df = tibble::tibble(
  people = repurrrsive::sw_people
))
```

```
## # A tibble: 87 × 1
##    people           
##    <list>           
##  1 <named list [16]>
##  2 <named list [14]>
##  3 <named list [14]>
##  4 <named list [15]>
##  5 <named list [15]>
##  6 <named list [14]>
##  7 <named list [14]>
##  8 <named list [14]>
##  9 <named list [15]>
## 10 <named list [16]>
## # … with 77 more rows
```
…
```
## [1] 87
```

---

## Unnesting

```r
sw_df %>%
  unnest_wider(people)
```

```
## # A tibble: 87 × 16
##    name           height mass  hair_color skin_color eye_color birth_year gender
##    <chr>          <chr>  <chr> <chr>      <chr>      <chr>     <chr>      <chr> 
##  1 Luke Skywalker 172    77    blond      fair       blue      19BBY      male  
##  2 C-3PO          167    75    n/a        gold       yellow    112BBY     n/a   
##  3 R2-D2          96     32    n/a        white, bl… red       33BBY      n/a   
##  4 Darth Vader    202    136   none       white      yellow    41.9BBY    male  
##  5 Leia Organa    150    49    brown      light      brown     19BBY      female
##  6 Owen Lars      178    120   brown, gr… light      blue      52BBY      male  
##  7 Beru Whitesun… 165    75    brown      light      blue      47BBY      female
##  8 R5-D4          97     32    n/a        white, red red       unknown    n/a   
##  9 Biggs Darklig… 183    84    black      light      brown     24BBY      male  
## 10 Obi-Wan Kenobi 182    77    auburn, w… fair       blue-gray 57BBY      male  
## # … with 77 more rows, and 8 more variables: homeworld <chr>, films <list>,
## #   species <chr>, vehicles <list>, starships <list>, created <chr>,
## #   edited <chr>, url <chr>
```

---

## More list columns

.pull-left[

```r
sw_df %>%
  unnest_wider(people) %>% 
  select(name, starships)
```

```
## # A tibble: 87 × 2
##    name               starships
##    <chr>              <list>   
##  1 Luke Skywalker     <chr [2]>
##  2 C-3PO              <NULL>   
##  3 R2-D2              <NULL>   
##  4 Darth Vader        <chr [1]>
##  5 Leia Organa        <NULL>   
##  6 Owen Lars          <NULL>   
##  7 Beru Whitesun lars <NULL>   
##  8 R5-D4              <NULL>   
##  9 Biggs Darklighter  <chr [1]>
## 10 Obi-Wan Kenobi     <chr [5]>
## # … with 77 more rows
```
…
---

## Unnest Longer

```r
unnest_wider(sw_df, people) %>% 
  select(name, starships) %>%
  unnest_longer(starships)
```

```
## # A tibble: 98 × 2
##    name               starships                        
##    <chr>              <chr>                            
##  1 Luke Skywalker     http://swapi.co/api/starships/12/
##  2 Luke Skywalker     http://swapi.co/api/starships/22/
##  3 C-3PO              <NA>                             
##  4 R2-D2              <NA>                             
##  5 Darth Vader        http://swapi.co/api/starships/13/
##  6 Leia Organa        <NA>                             
##  7 Owen Lars          <NA>                             
##  8 Beru Whitesun lars <NA>                             
##  9 R5-D4              <NA>                             
## 10 Biggs Darklighter  http://swapi.co/api/starships/12/
## # … with 88 more rows
```

---

## Aside - sw_starships

```r
(ships = tibble(ships = repurrrsive::sw_starships) %>%
   unnest_wider(ships) %>%
   select(ship = name, url)
)
```

```
## # A tibble: 37 × 2
##    ship                          url                              
##    <chr>                         <chr>                            
##  1 Sentinel-class landing craft  http://swapi.co/api/starships/5/ 
##  2 Death Star                    http://swapi.co/api/starships/9/ 
##  3 Millennium Falcon             http://swapi.co/api/starships/10/
##  4 Y-wing                        http://swapi.co/api/starships/11/
##  5 X-wing                        http://swapi.co/api/starships/12/
##  6 TIE Advanced x1               http://swapi.co/api/starships/13/
##  7 Executor                      http://swapi.co/api/starships/15/
##  8 Slave 1                       http://swapi.co/api/starships/21/
##  9 Imperial shuttle              http://swapi.co/api/starships/22/
## 10 EF76 Nebulon-B escort frigate http://swapi.co/api/starships/23/
## # … with 27 more rows
```
…
---

## Joining people and starships

```r
sw_df %>%
  unnest_wider(people) %>% 
  select(name, starships) %>%
  unnest_longer(starships) %>%
  left_join(ships, by = c("starships" = "url"))
```

```
## # A tibble: 98 × 3
##    name               starships                         ship            
##    <chr>              <chr>                             <chr>           
##  1 Luke Skywalker     http://swapi.co/api/starships/12/ X-wing          
##  2 Luke Skywalker     http://swapi.co/api/starships/22/ Imperial shuttle
##  3 C-3PO              <NA>                              <NA>            
##  4 R2-D2              <NA>                              <NA>            
##  5 Darth Vader        http://swapi.co/api/starships/13/ TIE Advanced x1 
##  6 Leia Organa        <NA>                              <NA>            
##  7 Owen Lars          <NA>                              <NA>            
##  8 Beru Whitesun lars <NA>                              <NA>            
##  9 R5-D4              <NA>                              <NA>            
## 10 Biggs Darklighter  http://swapi.co/api/starships/12/ X-wing          
## # … with 88 more rows
```
…
