Lec 24 - Tidymodels
…
---
class: middle, center

# Cross validation and Feature engineering

---

## The Office & IMDB

```r
(office_ratings = read_csv("data/office_ratings.csv"))
```

```
## # A tibble: 188 × 6
##    season episode title   imdb_rating total_votes air_date  
##     <dbl>   <dbl> <chr>         <dbl>       <dbl> <date>    
##  1      1       1 Pilot           7.6        3706 2005-03-24
##  2      1       2 Divers…         8.3        3566 2005-03-29
##  3      1       3 Health…         7.9        2983 2005-04-05
##  4      1       4 The Al…         8.1        2886 2005-04-12
##  5      1       5 Basket…         8.4        3179 2005-04-19
##  6      1       6 Hot Gi…         7.8        2852 2005-04-26
##  7      2       1 The Du…         8.7        3213 2005-09-20
##  8      2       2 Sexual…         8.2        2736 2005-09-27
##  9      2       3 Office…         8.4        2742 2005-10-04
## 10      2       4 The Fi…         8.4        2713 2005-10-11
## # … with 178 more rows
```
…
--

<br/>

<div>

.pull-left[

```r
(office_train = training(office_split))
```

```
## # A tibble: 150 × 6
##    season episode title   imdb_rating total_votes air_date  
##     <dbl>   <dbl> <chr>         <dbl>       <dbl> <date>    
##  1      8      18 Last D…         7.8        1429 2012-03-08
##  2      9      14 Vandal…         7.6        1402 2013-01-31
##  3      2       8 Perfor…         8.2        2416 2005-11-15
##  4      9       5 Here C…         7.1        1515 2012-10-25
##  5      3      22 Beach …         9.1        2783 2007-05-10
##  6      7       1 Nepoti…         8.4        1897 2010-09-23
##  7      3      15 Phylli…         8.3        2283 2007-02-08
##  8      9      21 Livin'…         8.9        2041 2013-05-02
##  9      9      18 Promos          8          1445 2013-04-04
## 10      8      12 Pool P…         8          1612 2012-01-19
## # … with 140 more rows
```
]

.pull-right[

```r
(office_test = testing(office_split))
```

```
## # A tibble: 38 × 6
##    season episode title   imdb_rating total_votes air_date  
##     <dbl>   <dbl> <chr>         <dbl>       <dbl> <date>    
##  1      1       2 Divers…         8.3        3566 2005-03-29
##  2      2       4 The Fi…         8.4        2713 2005-10-11
##  3      2       9 E-Mail…         8.4        2527 2005-11-22
##  4      2      12 The In…         9          3282 2006-01-12
##  5      2      22 Casino…         9.3        3644 2006-05-11
##  6      3       5 Initia…         8.2        2254 2006-10-19
##  7      3      16 Busine…         8.8        2622 2007-02-15
##  8      3      17 Cockta…         8.5        2264 2007-02-22
##  9      4       6 Branch…         8.5        2185 2007-11-01
## 10      4       7 Surviv…         8.3        2110 2007-11-08
## # … with 28 more rows
```
…
## Feature engineering with dplyr

```r
office_train %>%
  mutate(
    season = as_factor(season),
    month = lubridate::month(air_date),
    wday = lubridate::wday(air_date),
    top10_votes = as.integer(total_votes > quantile(total_votes, 0.9))
  )
```

```
## # A tibble: 150 × 9
##    season episode title               imdb_rating total_votes air_date   month  wday top10_votes
##    <fct>    <dbl> <chr>                     <dbl>       <dbl> <date>     <dbl> <dbl>       <int>
##  1 8           18 Last Day in Florida         7.8        1429 2012-03-08     3     5           0
##  2 9           14 Vandalism                   7.6        1402 2013-01-31     1     5           0
##  3 2            8 Performance Review          8.2        2416 2005-11-15    11     3           0
##  4 9            5 Here Comes Treble           7.1        1515 2012-10-25    10     5           0
##  5 3           22 Beach Games                 9.1        2783 2007-05-10     5     5           0
##  6 7            1 Nepotism                    8.4        1897 2010-09-23     9     5           0
##  7 3           15 Phyllis' Wedding            8.3        2283 2007-02-08     2     5           0
##  8 9           21 Livin' the Dream            8.9        2041 2013-05-02     5     5           0
##  9 9           18 Promos                      8          1445 2013-04-04     4     5           0
## 10 8           12 Pool Party                  8          1612 2012-01-19     1     5           0
## # … with 140 more rows
```
…
---

## Baking a recipe

```r
prep(r) %>%
  bake(new_data = office_train)
```

```
## # A tibble: 150 × 34
##    episode title          total_votes imdb_rating air_date_USThan… air_date_USChri… air_date_USNewY…
##      <dbl> <fct>                <dbl>       <dbl>            <dbl>            <dbl>            <dbl>
##  1      18 Last Day in F…      0.0380         7.8                0                0                0
##  2      14 Vandalism           0.0151         7.6                0                0                0
##  3       8 Performance R…      0.781          8.2                0                0                0
##  4       5 Here Comes Tr…      0.128          7.1                0                0                0
##  5      22 Beach Games         0.892          9.1                0                0                0
##  6       1 Nepotism            0.470          8.4                0                0                0
##  7      15 Phyllis' Wedd…      0.662          8.3                0                0                0
##  8      21 Livin' the Dr…      0.560          8.9                0                0                0
##  9      18 Promos              0.0603         8                  0                0                0
## 10      12 Pool Party          0.22           8                  0                0                0
## # … with 140 more rows, and 27 more variables: air_date_USIndependenceDay <dbl>, season_X2 <dbl>,
## #   season_X3 <dbl>, season_X4 <dbl>, season_X5 <dbl>, season_X6 <dbl>, season_X7 <dbl>,
## #   season_X8 <dbl>, season_X9 <dbl>, air_date_dow_Mon <dbl>, air_date_dow_Tue <dbl>,
## #   air_date_dow_Wed <dbl>, air_date_dow_Thu <dbl>, air_date_dow_Fri <dbl>, air_date_dow_Sat <dbl>,
## #   air_date_month_Feb <dbl>, air_date_month_Mar <dbl>, air_date_month_Apr <dbl>,
## #   air_date_month_May <dbl>, air_date_month_Jun <dbl>, air_date_month_Jul <dbl>,
## #   air_date_month_Aug <dbl>, air_date_month_Sep <dbl>, air_date_month_Oct <dbl>, …
```
…
prep(r) %>%
  bake(new_data = office_train)
```

```
## # A tibble: 150 × 22
##    episode title total_votes imdb_rating season_X2 season_X3 season_X4 season_X5 season_X6 season_X7
##      <dbl> <fct>       <dbl>       <dbl>     <dbl>     <dbl>     <dbl>     <dbl>     <dbl>     <dbl>
##  1      18 Last…        1429         7.8         0         0         0         0         0         0
##  2      14 Vand…        1402         7.6         0         0         0         0         0         0
##  3       8 Perf…        2416         8.2         1         0         0         0         0         0
##  4       5 Here…        1515         7.1         0         0         0         0         0         0
##  5      22 Beac…        2783         9.1         0         1         0         0         0         0
##  6       1 Nepo…        1897         8.4         0         0         0         0         0         1
##  7      15 Phyl…        2283         8.3         0         1         0         0         0         0
##  8      21 Livi…        2041         8.9         0         0         0         0         0         0
##  9      18 Prom…        1445         8           0         0         0         0         0         0
## 10      12 Pool…        1612         8           0         0         0         0         0         0
## # … with 140 more rows, and 12 more variables: season_X8 <dbl>, season_X9 <dbl>,
## #   air_date_dow_Tue <dbl>, air_date_dow_Thu <dbl>, air_date_month_Feb <dbl>,
## #   air_date_month_Mar <dbl>, air_date_month_Apr <dbl>, air_date_month_May <dbl>,
## #   air_date_month_Sep <dbl>, air_date_month_Oct <dbl>, air_date_month_Nov <dbl>,
## #   air_date_month_Dec <dbl>
```
…
