Lec 25 - More Tidymodels
…
---

```r
lr_recipe %>%
  prep() %>%
  bake(new_data = hotel_train)
```

```
## # A tibble: 37,500 × 76
##    lead_time stays_in_weekend_nights stays_in_week_n… adults
##        <dbl>                   <dbl>            <dbl>  <dbl>
##  1         2                       0                1      2
##  2        95                       2                5      2
##  3        67                       2                2      2
##  4        47                       0                2      2
##  5        56                       0                3      0
##  6         6                       2                2      2
##  7       130                       1                2      2
##  8        27                       0                1      1
##  9        46                       0                2      2
## 10       423                       1                1      2
## # … with 37,490 more rows, and 72 more variables:
## #   is_repeated_guest <dbl>, previous_cancellations <dbl>,
## #   previous_bookings_not_canceled <dbl>,
## #   booking_changes <dbl>, days_in_waiting_list <dbl>,
## #   average_daily_rate <dbl>,
## #   total_of_special_requests <dbl>, children <fct>,
## #   arrival_date_year <dbl>, arrival_date_AllSouls <dbl>, …
```
…
---

## Logistic regression predictions

```r
lr_perf = lr_fit %>%
  augment(new_data = hotel_train) %>%
  select(children, starts_with(".pred"))

lr_perf
```

```
## # A tibble: 37,500 × 4
##    children .pred_class .pred_children .pred_none
##    <fct>    <fct>                <dbl>      <dbl>
##  1 none     none                0.0861     0.914 
##  2 none     none                0.0178     0.982 
##  3 none     none                0.0101     0.990 
##  4 children children            0.931      0.0693
##  5 children none                0.473      0.527 
##  6 children none                0.144      0.856 
##  7 none     none                0.0710     0.929 
##  8 none     none                0.0596     0.940 
##  9 none     none                0.0252     0.975 
## 10 none     none                0.0735     0.926 
## # … with 37,490 more rows
```
…
## Combining ROC curves

.pull-left[

```r
lr_test_perf %>%
  yardstick::roc_curve(
    children,
    .pred_children
  ) 
```

```
## # A tibble: 11,521 × 3
##     .threshold specificity sensitivity
##          <dbl>       <dbl>       <dbl>
##  1 -Inf          0                   1
##  2    2.22e-16   0                   1
##  3    1.01e-11   0.0000870           1
##  4    4.96e-11   0.000174            1
##  5    1.16e- 9   0.000261            1
##  6    7.32e- 9   0.000348            1
##  7    8.80e- 9   0.000435            1
##  8    9.29e- 9   0.000522            1
##  9    9.67e- 9   0.000609            1
## 10    1.08e- 8   0.000696            1
## # … with 11,511 more rows
```
…
Lasso (and Ridge) models are sensitive to the scale of the model features, and so a standard approach is to normalize all features before fitting the model.

```r
lasso_recipe = lr_recipe %>%
  step_normalize(all_predictors())
```

```r
lasso_recipe %>%
  prep() %>%
  bake(new_data = hotel_train)
```

```
## # A tibble: 37,500 × 76
##    lead_time stays_in_weekend_nights stays_in_week_n… adults
##        <dbl>                   <dbl>            <dbl>  <dbl>
##  1    -0.858                 -0.938            -0.767  0.337
##  2     0.160                  1.09              1.32   0.337
##  3    -0.146                  1.09             -0.245  0.337
##  4    -0.365                 -0.938            -0.245  0.337
##  5    -0.267                 -0.938             0.278 -3.59 
##  6    -0.814                  1.09             -0.245  0.337
##  7     0.544                  0.0735           -0.245  0.337
##  8    -0.584                 -0.938            -0.767 -1.63 
##  9    -0.376                 -0.938            -0.245  0.337
## 10     3.75                   0.0735           -0.767  0.337
## # … with 37,490 more rows, and 72 more variables:
## #   is_repeated_guest <dbl>, previous_cancellations <dbl>,
## #   previous_bookings_not_canceled <dbl>,
## #   booking_changes <dbl>, days_in_waiting_list <dbl>,
## #   average_daily_rate <dbl>,
## #   total_of_special_requests <dbl>, children <fct>,
## #   arrival_date_year <dbl>, arrival_date_AllSouls <dbl>, …
```
…
---

## Extracting predictions

Since we used `control_grid(save_pred = TRUE)` with `tune_grid()` we can recover the predictions for the out-of-sample values for each fold:

```r
lasso_train_perf = lasso_grid %>%
  collect_predictions(parameters = lasso_best)
lasso_train_perf
```

```
## # A tibble: 37,500 × 7
##    id    .pred_children .pred_none  .row penalty children
##    <chr>          <dbl>      <dbl> <int>   <dbl> <fct>   
##  1 Fold1         0.366       0.634     5 0.00215 children
##  2 Fold1         0.144       0.856     6 0.00215 children
##  3 Fold1         0.0542      0.946    19 0.00215 none    
##  4 Fold1         0.0266      0.973    21 0.00215 none    
##  5 Fold1         0.106       0.894    22 0.00215 children
##  6 Fold1         0.0286      0.971    23 0.00215 none    
##  7 Fold1         0.0205      0.980    30 0.00215 none    
##  8 Fold1         0.0192      0.981    31 0.00215 none    
##  9 Fold1         0.0431      0.957    32 0.00215 none    
## 10 Fold1         0.0532      0.947    35 0.00215 none    
## # … with 37,490 more rows, and 1 more variable:
## #   .config <chr>
```
…
