…
* No column name mangling

* Consistent argument/function naming scheme

* Plays nice with dplyr (`tbl_df`)

---

## Ticket Data

```{r, eval=FALSE}
nyc

## # A tibble: 9,980,449 × 43
##    `Summons Number` `Plate ID` `Registration State` `Plate Type` `Issue Date` `Violation Code`
##               <dbl> <chr>      <chr>                <chr>        <chr>                   <dbl>
##  1       1457617912 JEB5683    NY                   PAS          06/25/2021                 40
##  2       1457617924 JAN2986    NY                   PAS          06/25/2021                 20
##  3       1457622427 FJH6630    TX                   PAS          06/17/2021                 98
##  4       1457638629 RD1Y5N     MO                   PAS          06/16/2021                 98
##  5       1457639580 T503814C   NY                   OMT          07/04/2021                 40
##  6       1457643042 JLN5490    NY                   PAS          06/28/2021                 98
##  7       1457663909 UMB4505    VA                   PAS          07/02/2021                 98
##  8       1457670471 JPS7544    NY                   PAS          06/19/2021                 40
##  9       1457670537 UPS7544    NY                   PAS          06/19/2021                 70
## 10       1457677623 07027R5    TX                   PAS          07/03/2021                 74
## # … with 9,980,439 more rows, and 37 more variables: `Vehicle Body Type` <chr>, `Vehicle Make` <chr>,
## #   `Issuing Agency` <chr>, `Street Code1` <dbl>, `Street Code2` <dbl>, `Street Code3` <dbl>,
## #   `Vehicle Expiration Date` <dbl>, `Violation Location` <chr>, `Violation Precinct` <dbl>,
## #   `Issuer Precinct` <dbl>, `Issuer Code` <dbl>, `Issuer Command` <chr>, `Issuer Squad` <chr>,
## #   `Violation Time` <chr>, `Time First Observed` <chr>, `Violation County` <chr>,
## #   `Violation In Front Of Or Opposite` <chr>, `House Number` <chr>, `Street Name` <chr>,
## #   `Intersecting Street` <chr>, `Date First Observed` <dbl>, `Law Section` <dbl>, …
```


---

## Fixing column names

```{r eval=FALSE}
(nyc = janitor::clean_names(nyc))

## # A tibble: 9,980,449 × 43
##    summons_number plate_id registration_sta… plate_type issue_date violation_code vehicle_body_ty… vehicle_make
##             <dbl> <chr>    <chr>             <chr>      <chr>               <dbl> <chr>            <chr>       
##  1     1457617912 JEB5683  NY                PAS        06/25/2021             40 VAN              FORD        
##  2     1457617924 JAN2986  NY                PAS        06/25/2021             20 SUBN             DODGE       
##  3     1457622427 FJH6630  TX                PAS        06/17/2021             98 SDN              AUDI        
##  4     1457638629 RD1Y5N   MO                PAS        06/16/2021             98 SDN              TOYOT       
##  5     1457639580 T503814C NY                OMT        07/04/2021             40 TAXI             HONDA       
##  6     1457643042 JLN5490  NY                PAS        06/28/2021             98 SDN              HONDA       
##  7     1457663909 UMB4505  VA                PAS        07/02/2021             98 SDN              SUBAR       
##  8     1457670471 JPS7544  NY                PAS        06/19/2021             40 SDN              NISSA       
##  9     1457670537 UPS7544  NY                PAS        06/19/2021             70 SDN              NISSA       
## 10     1457677623 07027R5  TX                PAS        07/03/2021             74 SUBN             LEXUS       
## # … with 9,980,439 more rows, and 35 more variables: issuing_agency <chr>, street_code1 <dbl>,
## #   street_code2 <dbl>, street_code3 <dbl>, vehicle_expiration_date <dbl>, violation_location <chr>,
## #   violation_precinct <dbl>, issuer_precinct <dbl>, issuer_code <dbl>, issuer_command <chr>,
## #   issuer_squad <chr>, violation_time <chr>, time_first_observed <chr>, violation_county <chr>,
## #   violation_in_front_of_or_opposite <chr>, house_number <chr>, street_name <chr>, intersecting_street <chr>,
## #   date_first_observed <dbl>, law_section <dbl>, sub_division <chr>, violation_legal_code <lgl>,
## #   days_parking_in_effect <chr>, from_hours_in_effect <chr>, to_hours_in_effect <chr>, vehicle_color <chr>, …
```
…
## Simplifying 

There is a lot of variables we won't care about for the time being, so lets make life easier by selecting a subset of columns.

```{r eval=FALSE}
(nyc_trim = nyc %>% 
  select(
    registration_state:issuing_agency, 
    violation_location, violation_precinct, violation_time,
    house_number:intersecting_street, vehicle_color
  )
)

## # A tibble: 9,980,449 × 14
##    registration_state plate_type issue_date violation_code vehicle_body_type vehicle_make issuing_agency
##    <chr>              <chr>      <chr>               <dbl> <chr>             <chr>        <chr>         
##  1 NY                 PAS        06/25/2021             40 VAN               FORD         P             
##  2 NY                 PAS        06/25/2021             20 SUBN              DODGE        P             
##  3 TX                 PAS        06/17/2021             98 SDN               AUDI         P             
##  4 MO                 PAS        06/16/2021             98 SDN               TOYOT        P             
##  5 NY                 OMT        07/04/2021             40 TAXI              HONDA        P             
##  6 NY                 PAS        06/28/2021             98 SDN               HONDA        P             
##  7 VA                 PAS        07/02/2021             98 SDN               SUBAR        P             
##  8 NY                 PAS        06/19/2021             40 SDN               NISSA        P             
##  9 NY                 PAS        06/19/2021             70 SDN               NISSA        P             
## 10 TX                 PAS        07/03/2021             74 SUBN              LEXUS        P             
## # … with 9,980,439 more rows, and 7 more variables: violation_location <chr>, violation_precinct <dbl>,
## #   violation_time <chr>, house_number <chr>, street_name <chr>, intersecting_street <chr>,
## #   vehicle_color <chr>
```
…
---

## Clean data?

How many different car colors are in this data set?

--

.pull-left[ .small[
```{r eval=FALSE}
nyc %>% 
  count(vehicle_color) %>% 
  arrange(desc(n))

## # A tibble: 953 × 2
##    vehicle_color       n
##    <chr>           <int>
##  1 GY            1943084
##  2 WH            1779206
##  3 BK            1701522
##  4 NA             683723
##  5 WHITE          654584
##  6 BL             653795
##  7 BLACK          423010
##  8 RD             377793
##  9 GREY           302187
## 10 SILVE          162462
## # … with 943 more rows
```
] ]

.pull-right[ .small[
```{r eval=FALSE}
nyc %>% 
  count(vehicle_color)


## # A tibble: 953 × 2
##    vehicle_color     n
##    <chr>         <int>
##  1 -                 1
##  2 - /               1
##  3 -.I.              1
##  4 ?:{              15
##  5 .                 2
##  6 ..                4
##  7 .N                1
##  8 .X                1
##  9 '}                1
## 10 //                4
## # … with 943 more rows
```
…
nyc = nyc %>% mutate(issue_date = mdy(issue_date, tz="America/New_York"))
class(nyc$issue_date)
## [1] "POSIXct" "POSIXt"

range(nyc$issue_date)
## [1] "1973-09-24 EDT" "2067-11-28 EST"
```

---

```{r, eval=FALSE}
nyc

## # A tibble: 9,980,449 × 43
##    summons_number plate_id registration_st… plate_type issue_date          violation_code vehicle_body_ty…
##             <dbl> <chr>    <chr>            <chr>      <dttm>                       <dbl> <chr>           
##  1     1457617912 JEB5683  NY               PAS        2021-06-25 00:00:00             40 VAN             
##  2     1457617924 JAN2986  NY               PAS        2021-06-25 00:00:00             20 SUBN            
##  3     1457622427 FJH6630  TX               PAS        2021-06-17 00:00:00             98 SDN             
##  4     1457638629 RD1Y5N   MO               PAS        2021-06-16 00:00:00             98 SDN             
##  5     1457639580 T503814C NY               OMT        2021-07-04 00:00:00             40 TAXI            
##  6     1457643042 JLN5490  NY               PAS        2021-06-28 00:00:00             98 SDN             
##  7     1457663909 UMB4505  VA               PAS        2021-07-02 00:00:00             98 SDN             
##  8     1457670471 JPS7544  NY               PAS        2021-06-19 00:00:00             40 SDN             
##  9     1457670537 UPS7544  NY               PAS        2021-06-19 00:00:00             70 SDN             
## 10     1457677623 07027R5  TX               PAS        2021-07-03 00:00:00             74 SUBN            
## # … with 9,980,439 more rows, and 36 more variables: vehicle_make <chr>, issuing_agency <chr>,
## #   street_code1 <dbl>, street_code2 <dbl>, street_code3 <dbl>, vehicle_expiration_date <dbl>,
## #   violation_location <chr>, violation_precinct <dbl>, issuer_precinct <dbl>, issuer_code <dbl>,
## #   issuer_command <chr>, issuer_squad <chr>, violation_time <chr>, time_first_observed <chr>,
## #   violation_county <chr>, violation_in_front_of_or_opposite <chr>, house_number <chr>,
## #   street_name <chr>, intersecting_street <chr>, date_first_observed <dbl>, law_section <dbl>,
## #   sub_division <chr>, violation_legal_code <lgl>, days_parking_in_effect <chr>, …
```
…
---

```{r, eval=FALSE}
filter(nyc, issue_date >= mdy("1/1/2021"), issue_date <= mdy("12/31/2022"))
## # A tibble: 9,979,916 × 43
##    summons_number plate_id registration_state plate_type issue_date          violation_code
##             <dbl> <chr>    <chr>              <chr>      <dttm>                       <dbl>
##  1     1457617912 JEB5683  NY                 PAS        2021-06-25 00:00:00             40
##  2     1457617924 JAN2986  NY                 PAS        2021-06-25 00:00:00             20
##  3     1457622427 FJH6630  TX                 PAS        2021-06-17 00:00:00             98
##  4     1457638629 RD1Y5N   MO                 PAS        2021-06-16 00:00:00             98
##  5     1457639580 T503814C NY                 OMT        2021-07-04 00:00:00             40
##  6     1457643042 JLN5490  NY                 PAS        2021-06-28 00:00:00             98
##  7     1457663909 UMB4505  VA                 PAS        2021-07-02 00:00:00             98
##  8     1457670471 JPS7544  NY                 PAS        2021-06-19 00:00:00             40
##  9     1457670537 UPS7544  NY                 PAS        2021-06-19 00:00:00             70
## 10     1457677623 07027R5  TX                 PAS        2021-07-03 00:00:00             74
## # … with 9,979,906 more rows, and 37 more variables: vehicle_body_type <chr>,
## #   vehicle_make <chr>, issuing_agency <chr>, street_code1 <dbl>, street_code2 <dbl>,
## #   street_code3 <dbl>, vehicle_expiration_date <dbl>, violation_location <chr>,
## #   violation_precinct <dbl>, issuer_precinct <dbl>, issuer_code <dbl>, issuer_command ## <chr>,
## #   issuer_squad <chr>, violation_time <chr>, time_first_observed <chr>,
## #   violation_county <chr>, violation_in_front_of_or_opposite <chr>, house_number <chr>,
## #   street_name <chr>, intersecting_street <chr>, date_first_observed <dbl>, …
```
…
nyc

## # A tibble: 9,979,916 × 18
##    registration_state plate_type issue_date violation_code vehicle_body_type vehicle_make
##    <chr>              <chr>      <date>              <dbl> <chr>             <chr>       
##  1 NY                 PAS        2021-06-25             40 VAN               FORD        
##  2 NY                 PAS        2021-06-25             20 SUBN              DODGE       
##  3 TX                 PAS        2021-06-17             98 SDN               AUDI        
##  4 MO                 PAS        2021-06-16             98 SDN               TOYOT       
##  5 NY                 OMT        2021-07-04             40 TAXI              HONDA       
##  6 NY                 PAS        2021-06-28             98 SDN               HONDA       
##  7 VA                 PAS        2021-07-02             98 SDN               SUBAR       
##  8 NY                 PAS        2021-06-19             40 SDN               NISSA       
##  9 NY                 PAS        2021-06-19             70 SDN               NISSA       
## 10 TX                 PAS        2021-07-03             74 SUBN              LEXUS       
## # … with 9,979,906 more rows, and 12 more variables: issuing_agency <chr>,
## #   violation_location <chr>, violation_precinct <dbl>, violation_time <chr>,
## #   house_number <chr>, street_name <chr>, intersecting_street <chr>, vehicle_color <chr>,
## #   issue_day <int>, issue_month <dbl>, issue_year <dbl>, issue_wday <ord>
```
…
